<svg width="24" height="24" viewBox="0 0 24 24" fill="none" xmlns="http://www.w3.org/2000/svg">
<path fill-rule="evenodd" clip-rule="evenodd" d="M6.00001 19.2595C4.67403 17.7109 4.00738 15.8209 4.00006 13.5894L4 13.5522C4 12.5695 4.2091 11.5758 4.62729 10.571C5.04546 9.56624 5.58519 8.58434 6.24647 7.6253C6.90773 6.66626 7.64727 5.74383 8.46509 4.85799C9.2829 3.97217 10.0914 3.1612 10.8907 2.42506C11.044 2.27499 11.2167 2.16663 11.4088 2.09998C11.6008 2.03332 11.7979 2 12 2C12.2021 2 12.3992 2.03332 12.5912 2.09998C12.7833 2.16663 12.956 2.27499 13.1093 2.42506C13.9086 3.1612 14.7171 3.97217 15.5349 4.85799C16.3527 5.74383 17.0923 6.66626 17.7535 7.6253C18.4148 8.58434 18.9545 9.56624 19.3727 10.571C19.7909 11.5758 20 12.5695 20 13.5522C20 13.6274 19.9993 13.7022 19.9978 13.7766C19.9547 15.9268 19.2887 17.7544 18 19.2595V19.2625C17.9078 19.3701 17.8124 19.4761 17.7138 19.5805C16.1897 21.1935 14.2851 22 12 22C9.71495 22 7.81035 21.1935 6.28621 19.5805C6.18762 19.4761 6.09222 19.3701 6.00001 19.2625V19.2595ZM7.35462 10C7.45342 9.82898 7.55866 9.6558 7.67034 9.48046C8.63815 7.96103 10.0814 6.28817 12 4.46188C13.9186 6.28817 15.3619 7.96103 16.3297 9.48046C16.4413 9.6558 16.5466 9.82898 16.6454 10H7.35462ZM12.2857 18.7497C12.5002 18.733 12.6823 18.6474 12.8321 18.4929C12.9819 18.3385 13.0569 18.1527 13.0569 17.9356C13.0569 17.6891 12.9769 17.4875 12.817 17.3311C12.6571 17.1747 12.4556 17.1048 12.2125 17.1216C11.5228 17.1718 10.8294 16.9854 10.1322 16.5621C9.4351 16.1389 8.99096 15.398 8.7998 14.3395C8.76729 14.1472 8.67807 13.9864 8.53215 13.8571C8.38622 13.7278 8.2122 13.6631 8.01009 13.6631C7.7631 13.6631 7.56063 13.7571 7.4027 13.945C7.24474 14.133 7.1921 14.3523 7.24476 14.6028C7.52107 16.1316 8.17024 17.2216 9.19227 17.8731C10.2143 18.5245 11.2454 18.8167 12.2857 18.7497Z" fill="black"/>
</svg>
