<svg width="1024" height="1024" viewBox="0 0 1024 1024" fill="none" xmlns="http://www.w3.org/2000/svg">
<rect width="1024" height="1024" fill="white"/>
<path d="M971 568C905.945 669.817 745.068 886.76 622 940" stroke="#3A3A3A" stroke-width="16" stroke-linecap="round"/>
<mask id="path-3-inside-1_106_92" fill="white">
<path d="M963 159H697C694.239 159 692 161.239 692 164V308C692 310.761 694.239 313 697 313H963V159Z"/>
</mask>
<path d="M963 159H697C694.239 159 692 161.239 692 164V308C692 310.761 694.239 313 697 313H963V159Z" fill="#47299B"/>
<path d="M963 149H697C688.716 149 682 155.716 682 164L702 169H963V149ZM682 308C682 316.284 688.716 323 697 323H963V303H702L682 308ZM963 313V159V313ZM697 149C688.716 149 682 155.716 682 164V308C682 316.284 688.716 323 697 323L702 303V169L697 149Z" fill="#3B2185" mask="url(#path-3-inside-1_106_92)"/>
<g filter="url(#filter0_d_106_92)">
<mask id="path-5-inside-2_106_92" fill="white">
<path d="M964 350H779C776.239 350 774 352.239 774 355V499C774 501.761 776.239 504 779 504H964V350Z"/>
</mask>
<path d="M964 350H779C776.239 350 774 352.239 774 355V499C774 501.761 776.239 504 779 504H964V350Z" fill="#47299B"/>
<path d="M964 340H779C770.716 340 764 346.716 764 355L784 360H964V340ZM764 499C764 507.284 770.716 514 779 514H964V494H784L764 499ZM964 504V350V504ZM779 340C770.716 340 764 346.716 764 355V499C764 507.284 770.716 514 779 514L784 494V360L779 340Z" fill="#3B2185" mask="url(#path-5-inside-2_106_92)"/>
</g>
<line x1="8" y1="-8" x2="489" y2="-8" transform="matrix(0 -1 -1 0 963 576)" stroke="#3A3A3A" stroke-width="16" stroke-linecap="round"/>
<path d="M968 569C655.354 569 664.537 766.297 616 940" stroke="#3A3A3A" stroke-width="16" stroke-linecap="round"/>
<path d="M56 568C121.055 669.817 281.932 886.76 405 940" stroke="#3A3A3A" stroke-width="16" stroke-linecap="round"/>
<mask id="path-10-inside-3_106_92" fill="white">
<path d="M64 159H330C332.761 159 335 161.239 335 164V308C335 310.761 332.761 313 330 313H64V159Z"/>
</mask>
<path d="M64 159H330C332.761 159 335 161.239 335 164V308C335 310.761 332.761 313 330 313H64V159Z" fill="#47299B"/>
<path d="M64 149H330C338.284 149 345 155.716 345 164L325 169H64V149ZM345 308C345 316.284 338.284 323 330 323H64V303H325L345 308ZM64 313V159V313ZM330 149C338.284 149 345 155.716 345 164V308C345 316.284 338.284 323 330 323L325 303V169L330 149Z" fill="#3B2185" mask="url(#path-10-inside-3_106_92)"/>
<g filter="url(#filter1_d_106_92)">
<mask id="path-12-inside-4_106_92" fill="white">
<path d="M63 350H248C250.761 350 253 352.239 253 355V499C253 501.761 250.761 504 248 504H63V350Z"/>
</mask>
<path d="M63 350H248C250.761 350 253 352.239 253 355V499C253 501.761 250.761 504 248 504H63V350Z" fill="#47299B"/>
<path d="M63 340H248C256.284 340 263 346.716 263 355L243 360H63V340ZM263 499C263 507.284 256.284 514 248 514H63V494H243L263 499ZM63 504V350V504ZM248 340C256.284 340 263 346.716 263 355V499C263 507.284 256.284 514 248 514L243 494V360L248 340Z" fill="#3B2185" mask="url(#path-12-inside-4_106_92)"/>
</g>
<line x1="56" y1="568" x2="56" y2="87" stroke="#3A3A3A" stroke-width="16" stroke-linecap="round"/>
<path d="M59 569C371.646 569 362.463 766.297 411 940" stroke="#3A3A3A" stroke-width="16" stroke-linecap="round"/>
<path d="M406 939C491.735 955.3 585.056 945.792 621 939" stroke="#3A3A3A" stroke-width="16" stroke-linecap="round"/>
<g filter="url(#filter2_d_106_92)">
<line x1="8" y1="-8" x2="921" y2="-8" transform="matrix(1 0 -3.70805e-05 1 50 94.0544)" stroke="#3A3A3A" stroke-width="16" stroke-linecap="round"/>
</g>
<defs>
<filter id="filter0_d_106_92" x="770" y="350" width="198" height="162" filterUnits="userSpaceOnUse" color-interpolation-filters="sRGB">
<feFlood flood-opacity="0" result="BackgroundImageFix"/>
<feColorMatrix in="SourceAlpha" type="matrix" values="0 0 0 0 0 0 0 0 0 0 0 0 0 0 0 0 0 0 127 0" result="hardAlpha"/>
<feOffset dy="4"/>
<feGaussianBlur stdDeviation="2"/>
<feComposite in2="hardAlpha" operator="out"/>
<feColorMatrix type="matrix" values="0 0 0 0 0 0 0 0 0 0 0 0 0 0 0 0 0 0 0.25 0"/>
<feBlend mode="normal" in2="BackgroundImageFix" result="effect1_dropShadow_106_92"/>
<feBlend mode="normal" in="SourceGraphic" in2="effect1_dropShadow_106_92" result="shape"/>
</filter>
<filter id="filter1_d_106_92" x="59" y="350" width="198" height="162" filterUnits="userSpaceOnUse" color-interpolation-filters="sRGB">
<feFlood flood-opacity="0" result="BackgroundImageFix"/>
<feColorMatrix in="SourceAlpha" type="matrix" values="0 0 0 0 0 0 0 0 0 0 0 0 0 0 0 0 0 0 127 0" result="hardAlpha"/>
<feOffset dy="4"/>
<feGaussianBlur stdDeviation="2"/>
<feComposite in2="hardAlpha" operator="out"/>
<feColorMatrix type="matrix" values="0 0 0 0 0 0 0 0 0 0 0 0 0 0 0 0 0 0 0.25 0"/>
<feBlend mode="normal" in2="BackgroundImageFix" result="effect1_dropShadow_106_92"/>
<feBlend mode="normal" in="SourceGraphic" in2="effect1_dropShadow_106_92" result="shape"/>
</filter>
<filter id="filter2_d_106_92" x="46.0003" y="74.0544" width="937" height="24" filterUnits="userSpaceOnUse" color-interpolation-filters="sRGB">
<feFlood flood-opacity="0" result="BackgroundImageFix"/>
<feColorMatrix in="SourceAlpha" type="matrix" values="0 0 0 0 0 0 0 0 0 0 0 0 0 0 0 0 0 0 127 0" result="hardAlpha"/>
<feOffset/>
<feGaussianBlur stdDeviation="2"/>
<feComposite in2="hardAlpha" operator="out"/>
<feColorMatrix type="matrix" values="0 0 0 0 0 0 0 0 0 0 0 0 0 0 0 0 0 0 0.25 0"/>
<feBlend mode="normal" in2="BackgroundImageFix" result="effect1_dropShadow_106_92"/>
<feBlend mode="normal" in="SourceGraphic" in2="effect1_dropShadow_106_92" result="shape"/>
</filter>
</defs>
</svg>
